<?xml version="1.0" encoding="UTF-8"?> 
<graphml xmlns="http://graphml.graphdrawing.org/xmlns" 
xmlns:xsi="http://www.w3.org/2001/XMLSchema-instance" 
xsi:schemaLocation="http://graphml.graphdrawing.org/xmlns 
http://graphml.graphdrawing.org/xmlns/1.0/graphml.xsd">
 <graph edgedefault="directed" name="simple" type="layered">
  <node id="0" x="0" y="1" layer="1" positionInLayer="0"/>
  <node id="1" x="300" y="100" layer="0" positionInLayer="2"/>
  <node id="2" x="100" y="100" layer="0" positionInLayer="0"/>
  <node id="3" x="200" y="200" layer="1" positionInLayer="1"/>
  <node id="4" x="200" y="100" layer="0" positionInLayer="1"/>
  <edge source="1" target="0"/>
  <edge source="2" target="3"/>
  <edge source="4" target="3"/>
  <edge source="4" target="0"/>
 </graph>
</graphml>
