<?xml version="1.0" encoding="UTF-8"?> 
<graphml xmlns="http://graphml.graphdrawing.org/xmlns" 
xmlns:xsi="http://www.w3.org/2001/XMLSchema-instance" 
xsi:schemaLocation="http://graphml.graphdrawing.org/xmlns 
http://graphml.graphdrawing.org/xmlns/1.0/graphml.xsd">
 <graph  edgedefault="undirected">
  <node id="0" weight="0.0" label="" x="344" y="188" color="#000000" />
 </graph></graphml>
